{
    "results": [
        {
            "vote_count": 963,
            "id": 287947,
            "video": false,
            "vote_average": 7.3,
            "title": "Shazam!",
            "popularity": 324.604,
            "poster_path": "/xnopI5Xtky18MPhK40cZAGAOVeV.jpg",
            "original_language": "en",
            "original_title": "Shazam!",
            "genre_ids": [
                35,
                12,
                14
            ],
            "backdrop_path": "/bi4jh0Kt0uuZGsGJoUUfqmbrjQg.jpg",
            "adult": false,
            "overview": "A boy is given the ability to become an adult superhero in times of need with a single magic word.",
            "release_date": "2019-03-23"
        },
        {
            "vote_count": 3832,
            "id": 299537,
            "video": false,
            "vote_average": 7.2,
            "title": "Captain Marvel",
            "popularity": 261.639,
            "poster_path": "/AtsgWhDnHTq68L0lLsUrCnM7TjG.jpg",
            "original_language": "en",
            "original_title": "Captain Marvel",
            "genre_ids": [
                28,
                12,
                878
            ],
            "backdrop_path": "/w2PMyoyLU22YvrGK3smVM9fW1jj.jpg",
            "adult": false,
            "overview": "The story follows Carol Danvers as she becomes one of the universe’s most powerful heroes when Earth is caught in the middle of a galactic war between two alien races. Set in the 1990s, Captain Marvel is an all-new adventure from a previously unseen period in the history of the Marvel Cinematic Universe.",
            "release_date": "2019-03-06"
        },
        {
            "vote_count": 1481,
            "id": 166428,
            "video": false,
            "vote_average": 7.6,
            "title": "How to Train Your Dragon: The Hidden World",
            "popularity": 215.377,
            "poster_path": "/xvx4Yhf0DVH8G4LzNISpMfFBDy2.jpg",
            "original_language": "en",
            "original_title": "How to Train Your Dragon: The Hidden World",
            "genre_ids": [
                16,
                10751,
                12
            ],
            "backdrop_path": "/h3KN24PrOheHVYs9ypuOIdFBEpX.jpg",
            "adult": false,
            "overview": "As Hiccup fulfills his dream of creating a peaceful dragon utopia, Toothless’ discovery of an untamed, elusive mate draws the Night Fury away. When danger mounts at home and Hiccup’s reign as village chief is tested, both dragon and rider must make impossible decisions to save their kind.",
            "release_date": "2019-01-03"
        },
        {
            "vote_count": 808,
            "id": 522681,
            "video": false,
            "vote_average": 6.3,
            "title": "Escape Room",
            "popularity": 148.063,
            "poster_path": "/8yZAx7tlKRZIg7pJfaPhl00yHIQ.jpg",
            "original_language": "en",
            "original_title": "Escape Room",
            "genre_ids": [
                53
            ],
            "backdrop_path": "/mWLljCmpqlcYQh7uh51BBMwCZwN.jpg",
            "adult": false,
            "overview": "Six strangers find themselves in circumstances beyond their control, and must use their wits to survive.",
            "release_date": "2019-01-03"
        },
        {
            "vote_count": 839,
            "id": 329996,
            "video": false,
            "vote_average": 6.7,
            "title": "Dumbo",
            "popularity": 147.575,
            "poster_path": "/279PwJAcelI4VuBtdzrZASqDPQr.jpg",
            "original_language": "en",
            "original_title": "Dumbo",
            "genre_ids": [
                12,
                10751,
                14
            ],
            "backdrop_path": "/5tFt6iuGnKapHl5tw0X0cKcnuVo.jpg",
            "adult": false,
            "overview": "A young elephant, whose oversized ears enable him to fly, helps save a struggling circus, but when the circus plans a new venture, Dumbo and his friends discover dark secrets beneath its shiny veneer.",
            "release_date": "2019-03-27"
        },
        {
            "vote_count": 130,
            "id": 456740,
            "video": false,
            "vote_average": 5.1,
            "title": "Hellboy",
            "popularity": 142.696,
            "poster_path": "/nUXCJMnAiwCpNPZuJH2n6h5hGtF.jpg",
            "original_language": "en",
            "original_title": "Hellboy",
            "genre_ids": [
                28,
                12,
                14
            ],
            "backdrop_path": "/5BkSkNtfrnTuKOtTaZhl8avn4wU.jpg",
            "adult": false,
            "overview": "Hellboy comes to England, where he must defeat Nimue, Merlin's consort and the Blood Queen. But their battle will bring about the end of the world, a fate he desperately tries to turn away.",
            "release_date": "2019-04-11"
        },
        {
            "vote_count": 1932,
            "id": 424783,
            "video": false,
            "vote_average": 6.4,
            "title": "Bumblebee",
            "popularity": 115.282,
            "poster_path": "/fw02ONlDhrYjTSZV8XO6hhU3ds3.jpg",
            "original_language": "en",
            "original_title": "Bumblebee",
            "genre_ids": [
                28,
                12,
                878
            ],
            "backdrop_path": "/wtZj5nn6hVwgakPdg6y6gm3eFXU.jpg",
            "adult": false,
            "overview": "On the run in the year 1987, Bumblebee finds refuge in a junkyard in a small Californian beach town. Charlie, on the cusp of turning 18 and trying to find her place in the world, discovers Bumblebee, battle-scarred and broken.  When Charlie revives him, she quickly learns this is no ordinary yellow VW bug.",
            "release_date": "2018-12-15"
        },
        {
            "vote_count": 1043,
            "id": 458723,
            "video": false,
            "vote_average": 7.3,
            "title": "Us",
            "popularity": 111.619,
            "poster_path": "/ux2dU1jQ2ACIMShzB3yP93Udpzc.jpg",
            "original_language": "en",
            "original_title": "Us",
            "genre_ids": [
                53,
                27
            ],
            "backdrop_path": "/jNUCddkM1fjYcFIcEwFjc7s2H4V.jpg",
            "adult": false,
            "overview": "Husband and wife Gabe and Adelaide Wilson take their kids to their beach house expecting to unplug and unwind with friends. But as night descends, their serenity turns to tension and chaos when some shocking visitors arrive uninvited.",
            "release_date": "2019-03-14"
        },
        {
            "vote_count": 231,
            "id": 537915,
            "video": false,
            "vote_average": 6.7,
            "title": "After",
            "popularity": 106.971,
            "poster_path": "/u3B2YKUjWABcxXZ6Nm9h10hLUbh.jpg",
            "original_language": "en",
            "original_title": "After",
            "genre_ids": [
                18,
                10749
            ],
            "backdrop_path": "/8lESY7UGpOsbL2caib9Qe4bOebF.jpg",
            "adult": false,
            "overview": "A young woman falls for a guy with a dark secret and the two embark on a rocky relationship.",
            "release_date": "2019-04-11"
        },
        {
            "vote_count": 45,
            "id": 411728,
            "video": false,
            "vote_average": 7.8,
            "title": "The Professor and the Madman",
            "popularity": 100.114,
            "poster_path": "/yBaf5WjUqTQbc6mzPQBUcBiauDI.jpg",
            "original_language": "en",
            "original_title": "The Professor and the Madman",
            "genre_ids": [
                18,
                36,
                9648
            ],
            "backdrop_path": "/5Zjh2jPZyN0tuXmKXKuLEWy0k2S.jpg",
            "adult": false,
            "overview": "Professor James Murray begins work compiling words for the first edition of the Oxford English Dictionary in the mid 19th century and receives over 10,000 entries from a patient at Broadmoor Criminal Lunatic Asylum , Dr William Minor.",
            "release_date": "2019-03-07"
        },
        {
            "vote_count": 281,
            "id": 464504,
            "video": false,
            "vote_average": 5.6,
            "title": "A Madea Family Funeral",
            "popularity": 96.451,
            "poster_path": "/sFvOTUlZrIxCLdmz1fC16wK0lme.jpg",
            "original_language": "en",
            "original_title": "A Madea Family Funeral",
            "genre_ids": [
                35
            ],
            "backdrop_path": "/piGjUloiaq6qTpaDLisyDyEsx9i.jpg",
            "adult": false,
            "overview": "A joyous family reunion becomes a hilarious nightmare as Madea and the crew travel to backwoods Georgia, where they find themselves unexpectedly planning a funeral that might unveil unpleasant family secrets.",
            "release_date": "2019-03-01"
        },
        {
            "vote_count": 240,
            "id": 157433,
            "video": false,
            "vote_average": 5.9,
            "title": "Pet Sematary",
            "popularity": 72.439,
            "poster_path": "/7SPhr7Qj39vbnfF9O2qHRYaKHAL.jpg",
            "original_language": "en",
            "original_title": "Pet Sematary",
            "genre_ids": [
                27,
                53
            ],
            "backdrop_path": "/n2aX63BmW7zIKgKJ58e6rKlSsdi.jpg",
            "adult": false,
            "overview": "Louis Creed, his wife Rachel and their two children Gage and Ellie move to a rural home where they are welcomed and enlightened about the eerie 'Pet Sematary' located nearby. After the tragedy of their cat being killed by a truck, Louis resorts to burying it in the mysterious pet cemetery, which is definitely not as it seems, as it proves to the Creeds that sometimes dead is better.",
            "release_date": "2019-04-04"
        },
        {
            "vote_count": 1233,
            "id": 504172,
            "video": false,
            "vote_average": 6.4,
            "title": "The Mule",
            "popularity": 68.084,
            "poster_path": "/oeZh7yEz3PMnZLgBPhrafFHRbVz.jpg",
            "original_language": "en",
            "original_title": "The Mule",
            "genre_ids": [
                80,
                18,
                53
            ],
            "backdrop_path": "/bTeRgkAavyw1eCtSkaww18wLYNP.jpg",
            "adult": false,
            "overview": "Earl Stone, a man in his 80s who is broke, alone, and facing foreclosure of his business when he is offered a job that simply requires him to drive. Easy enough, but, unbeknownst to Earl, he’s just signed on as a drug courier for a Mexican cartel. He does so well that his cargo increases exponentially, and Earl hit the radar of hard-charging DEA agent Colin Bates.",
            "release_date": "2018-12-14"
        },
        {
            "vote_count": 359,
            "id": 500682,
            "video": false,
            "vote_average": 6.7,
            "title": "The Highwaymen",
            "popularity": 67.683,
            "poster_path": "/4bRYg4l12yDuJvAfqvUOPnBrxno.jpg",
            "original_language": "en",
            "original_title": "The Highwaymen",
            "genre_ids": [
                80,
                18,
                53
            ],
            "backdrop_path": "/pZ78ksjPlXf3q2EeONN8WdHE03Y.jpg",
            "adult": false,
            "overview": "In 1934, Frank Hamer and Manny Gault, two former Texas Rangers, are commissioned to put an end to the wave of vicious crimes perpetrated by Bonnie Parker and Clyde Barrow, a notorious duo of infamous robbers and cold-blooded killers who nevertheless are worshiped by the public.",
            "release_date": "2019-03-15"
        },
        {
            "vote_count": 19,
            "id": 458253,
            "video": false,
            "vote_average": 7.7,
            "title": "Missing Link",
            "popularity": 67.199,
            "poster_path": "/gEkKHiiQRVUSX15Iwo8VFydXrtu.jpg",
            "original_language": "en",
            "original_title": "Missing Link",
            "genre_ids": [
                16,
                35,
                12,
                14,
                10751
            ],
            "backdrop_path": "/ob4XnKBqAh1rg381hayebJx6EkE.jpg",
            "adult": false,
            "overview": "The charismatic Sir Lionel Frost considers himself to be the world's foremost investigator of myths and monsters. Trouble is, none of his small-minded, high-society peers seems to recognize this. Hoping to finally gain acceptance from these fellow adventurers, Sir Lionel travels to the Pacific Northwest to prove the existence of a legendary creature known as the missing link.",
            "release_date": "2019-04-04"
        },
        {
            "vote_count": 111,
            "id": 454294,
            "video": false,
            "vote_average": 6,
            "title": "The Kid Who Would Be King",
            "popularity": 61.39,
            "poster_path": "/kBuvLX6zynQP0sjyqbXV4jNaZ4E.jpg",
            "original_language": "en",
            "original_title": "The Kid Who Would Be King",
            "genre_ids": [
                28,
                12,
                14,
                10751
            ],
            "backdrop_path": "/jmbgxBd86MshzQQvv5laKvOKoMm.jpg",
            "adult": false,
            "overview": "Old-school magic meets the modern world when young Alex stumbles upon the mythical sword Excalibur. He soon unites his friends and enemies, and they become knights who join forces with the legendary wizard Merlin. Together, they must save mankind from the wicked enchantress Morgana and her army of supernatural warriors.",
            "release_date": "2019-01-16"
        },
        {
            "vote_count": 6840,
            "id": 424694,
            "video": false,
            "vote_average": 8.1,
            "title": "Bohemian Rhapsody",
            "popularity": 60.171,
            "poster_path": "/lHu1wtNaczFPGFDTrjCSzeLPTKN.jpg",
            "original_language": "en",
            "original_title": "Bohemian Rhapsody",
            "genre_ids": [
                18,
                10402
            ],
            "backdrop_path": "/xcaSYLBhmDzJ6P14bcKe0KTh3QV.jpg",
            "adult": false,
            "overview": "Singer Freddie Mercury, guitarist Brian May, drummer Roger Taylor and bass guitarist John Deacon take the music world by storm when they form the rock 'n' roll band Queen in 1970. Hit songs become instant classics. When Mercury's increasingly wild lifestyle starts to spiral out of control, Queen soon faces its greatest challenge yet – finding a way to keep the band together amid the success and excess.",
            "release_date": "2018-10-24"
        },
        {
            "vote_count": 89,
            "id": 471507,
            "video": false,
            "vote_average": 5.8,
            "title": "Destroyer",
            "popularity": 53.194,
            "poster_path": "/sHw9gTdo43nJL82py0oaROkXXNr.jpg",
            "original_language": "en",
            "original_title": "Destroyer",
            "genre_ids": [
                53,
                80,
                18,
                28
            ],
            "backdrop_path": "/rURV5xPzt9ZxEXAc4OQmxchGyZ8.jpg",
            "adult": false,
            "overview": "Erin Bell is an LAPD detective who, as a young cop, was placed undercover with a gang in the California desert with tragic results. When the leader of that gang re-emerges many years later, she must work her way back through the remaining members and into her own history with them to finally reckon with the demons that destroyed her past.",
            "release_date": "2018-12-25"
        },
        {
            "vote_count": 242,
            "id": 527261,
            "video": false,
            "vote_average": 5.8,
            "title": "The Silence",
            "popularity": 52.377,
            "poster_path": "/lTVOquzxw2DPF3MKuYd1ynz9F6H.jpg",
            "original_language": "en",
            "original_title": "The Silence",
            "genre_ids": [
                27,
                18
            ],
            "backdrop_path": "/iHJQIKSLHN2mUUWySpj2MO5HVtS.jpg",
            "adult": false,
            "overview": "With the world under attack by deadly creatures who hunt by sound, a teen and her family seek refuge outside the city and encounter a mysterious cult.",
            "release_date": "2019-04-10"
        },
        {
            "vote_count": 154,
            "id": 339380,
            "video": false,
            "vote_average": 7.4,
            "title": "On the Basis of Sex",
            "popularity": 50.074,
            "poster_path": "/izY9Le3QWtu7xkHq7bjJnuE5yGI.jpg",
            "original_language": "en",
            "original_title": "On the Basis of Sex",
            "genre_ids": [
                18,
                36
            ],
            "backdrop_path": "/3lZuky17k1ihovh6mvFyGfgLIi4.jpg",
            "adult": false,
            "overview": "Young lawyer Ruth Bader Ginsburg teams with her husband Marty to bring a groundbreaking case before the U.S. Court of Appeals and overturn a century of sex discrimination.",
            "release_date": "2018-12-25"
        }
    ],
    "page": 1,
    "total_results": 1174,
    "dates": {
        "maximum": "2019-04-15",
        "minimum": "2019-02-26"
    },
    "total_pages": 59
}
